Worldselect/worldselect_project/worldselect_project.sim/sim_1/behav/xsim/simulate.log
Vivado Simulator 2018.2
Time resolution is 1 ps
                   0	 i: 0 	 reset:1 	 map_change:0 	 map_select:0 
 
                  40	 i: 0 	 reset:0 	 map_change:0 	 map_select:0 
 
                  80	 i: 0 	 reset:0 	 map_change:0 	 map_select:3 
 
                 140	 i: 0 	 reset:0 	 map_change:1 	 map_select:3 
 
                 160	 i: 1 	 reset:0 	 map_change:0 	 map_select:3 
 
                 300	 i: 1 	 reset:0 	 map_change:1 	 map_select:3 
 
                 320	 i: 2 	 reset:0 	 map_change:0 	 map_select:3 
 
                 460	 i: 2 	 reset:0 	 map_change:1 	 map_select:3 
 
                 480	 i: 3 	 reset:0 	 map_change:0 	 map_select:3 
 
                 560	 i: 3 	 reset:0 	 map_change:0 	 map_select:2 
 
                 620	 i: 3 	 reset:0 	 map_change:1 	 map_select:2 
 
                 640	 i: 4 	 reset:0 	 map_change:0 	 map_select:2 
 
                 780	 i: 4 	 reset:0 	 map_change:1 	 map_select:2 
 
                 800	 i: 5 	 reset:0 	 map_change:0 	 map_select:2 
 
                 820	 i: 5 	 reset:1 	 map_change:0 	 map_select:2 
 
                 940	 i: 5 	 reset:1 	 map_change:1 	 map_select:2 
 
                 960	 i: 6 	 reset:1 	 map_change:0 	 map_select:2 
 
                 980	 i: 6 	 reset:0 	 map_change:0 	 map_select:2 
 
                   0	 i: 0 	 reset:1 	 map_change:0 	 map_select:0 
 
                  40	 i: 0 	 reset:0 	 map_change:0 	 map_select:0 
 
                  80	 i: 0 	 reset:0 	 map_change:0 	 map_select:3 
 
                 140	 i: 0 	 reset:0 	 map_change:1 	 map_select:3 
 
                 160	 i: 1 	 reset:0 	 map_change:0 	 map_select:3 
 
                 300	 i: 1 	 reset:0 	 map_change:1 	 map_select:3 
 
                 320	 i: 2 	 reset:0 	 map_change:0 	 map_select:3 
 
                 460	 i: 2 	 reset:0 	 map_change:1 	 map_select:3 
 
                 480	 i: 3 	 reset:0 	 map_change:0 	 map_select:3 
 
                 560	 i: 3 	 reset:0 	 map_change:0 	 map_select:2 
 
                 620	 i: 3 	 reset:0 	 map_change:1 	 map_select:2 
 
                 640	 i: 4 	 reset:0 	 map_change:0 	 map_select:2 
 
                 780	 i: 4 	 reset:0 	 map_change:1 	 map_select:2 
 
                 800	 i: 5 	 reset:0 	 map_change:0 	 map_select:2 
 
                 820	 i: 5 	 reset:1 	 map_change:0 	 map_select:2 
 
                 940	 i: 5 	 reset:1 	 map_change:1 	 map_select:2 
 
                 960	 i: 6 	 reset:1 	 map_change:0 	 map_select:2 
 
                 980	 i: 6 	 reset:0 	 map_change:0 	 map_select:2 
 
                1040	 i: 6 	 reset:0 	 map_change:0 	 map_select:1 
 
                1100	 i: 6 	 reset:0 	 map_change:1 	 map_select:1 
 
                1120	 i: 7 	 reset:0 	 map_change:0 	 map_select:1 
 
                1260	 i: 7 	 reset:0 	 map_change:1 	 map_select:1 
 
                1280	 i: 8 	 reset:0 	 map_change:0 	 map_select:1 
 
                1420	 i: 8 	 reset:0 	 map_change:1 	 map_select:1 
 
                1440	 i: 9 	 reset:0 	 map_change:0 	 map_select:1 
 
                1520	 i: 9 	 reset:0 	 map_change:0 	 map_select:0 
 
                1580	 i: 9 	 reset:0 	 map_change:1 	 map_select:0 
 
                1600	 i:10 	 reset:0 	 map_change:0 	 map_select:0 
 
                1620	 i:10 	 reset:1 	 map_change:0 	 map_select:0 
 
                1740	 i:10 	 reset:1 	 map_change:1 	 map_select:0 
 
                1760	 i:11 	 reset:1 	 map_change:0 	 map_select:0 
 
                1780	 i:11 	 reset:0 	 map_change:0 	 map_select:0 
 
                1900	 i:11 	 reset:0 	 map_change:1 	 map_select:0 
 
                1920	 i:12 	 reset:0 	 map_change:0 	 map_select:0 
 
                2000	 i:12 	 reset:0 	 map_change:0 	 map_select:3 
 
                2060	 i:12 	 reset:0 	 map_change:1 	 map_select:3 
 
                2080	 i:13 	 reset:0 	 map_change:0 	 map_select:3 
 
                2220	 i:13 	 reset:0 	 map_change:1 	 map_select:3 
 
                2240	 i:14 	 reset:0 	 map_change:0 	 map_select:3 
 
                2380	 i:14 	 reset:0 	 map_change:1 	 map_select:3 
 
